<svg width="18" height="18" viewBox="0 0 18 18" fill="none" xmlns="http://www.w3.org/2000/svg">
<path d="M3.75028 7.3954C5.18758 10.5258 7.74508 13.0147 10.9247 14.364L11.4344 14.591C12.6005 15.1106 13.9714 14.7159 14.6826 13.6558L15.3487 12.663C15.5652 12.3402 15.4993 11.9054 15.1968 11.6614L12.9379 9.83905C12.6061 9.57138 12.1182 9.63372 11.8644 9.97622L11.1656 10.9192C9.3725 10.0347 7.91671 8.57887 7.0322 6.78576L7.97514 6.08697C8.31764 5.83315 8.37998 5.34527 8.11232 5.01348L6.28991 2.75452C6.0459 2.45206 5.61128 2.38609 5.2885 2.60251L4.28887 3.27279C3.22211 3.98807 2.82958 5.3702 3.36113 6.53942L3.74969 7.39413L3.75028 7.3954Z" fill="#FFC83E"/>
</svg>
