<svg width="18" height="28" viewBox="0 0 18 28" fill="none" xmlns="http://www.w3.org/2000/svg">
<path fill-rule="evenodd" clip-rule="evenodd" d="M12.3977 16.7273C12.6174 16.9469 12.6174 17.3031 12.3977 17.5227L9.39775 20.5227C9.17808 20.7424 8.82192 20.7424 8.60225 20.5227L5.60225 17.5227C5.38258 17.3031 5.38258 16.9469 5.60225 16.7273C5.82192 16.5076 6.17808 16.5076 6.39775 16.7273L9 19.3295L11.6023 16.7273C11.8219 16.5076 12.1781 16.5076 12.3977 16.7273Z" fill="#BFBFBF"/>
<path fill-rule="evenodd" clip-rule="evenodd" d="M5.60225 11.2727C5.38258 11.0531 5.38258 10.6969 5.60225 10.4773L8.60225 7.47725C8.82192 7.25758 9.17808 7.25758 9.39775 7.47725L12.3977 10.4773C12.6174 10.6969 12.6174 11.0531 12.3977 11.2727C12.1781 11.4924 11.8219 11.4924 11.6023 11.2727L9 8.67049L6.39775 11.2727C6.17808 11.4924 5.82192 11.4924 5.60225 11.2727Z" fill="#333333"/>
</svg>
